[  {
    "courseName": "Incident Investigation",
    "courseDescription": "This course covers the theory and practice of accident investigation in the workplace. Most accidents occur when work behaviour, equipment or environment are taken for granted, and the system fails unexpectedly. Accident investigations determine how and why these failures occur, and how the findings can prevent repeat incidents. Students are taught to conduct accident investigations with prevention in mind, not to assign blame or criticize a workplace. ",
    "totalCourseRunSeconds": 4620,
    "activeLessonsCount": 8,
    "safetyImageURL": "https://portal.safetysync.com/ssimage/img.png?type=c&maxdimension=110&id=537",
    "lessonNames": [
      "Developing the Sequence of Events",
      "Root Cause Analysis",
      "Securing the Accident Scene",
      "Conducting Interviews",
      "Developing Recommendations",
      "Writing the Accident Report",
      "Documenting the Accident Scene",
      "Introduction to Accident and Incident Investigation"
    ]
  }
]