[
  {
    "courseName": "WHMIS 2015",
    "courseDescription": "An introduction to the Workplace Hazardous Materials Information System for employees working with dangerous chemicals. WHMIS training is required for all employees who work with, or in proximity to Hazardous Products.  This course meets the GHS legislated training requirements for Federal and Provincial workplaces. This generic training may need to be supplemented with training on site-specific products.",
    "totalCourseRunSeconds": 4380,
    "activeLessonsCount": 8,
    "safetyImageURL": "https://portal.safetysync.com/ssimage/img.png?type=c&maxdimension=110&id=4533",
    "lessonNames": [
      "Introduction to WHMIS",
      "Responsibilities",
      "Information Disclosed on Safety Data Sheets (SDS)",
      "Worker Education",
      "Classification",
      "Supplier Labels",
      "Workplace Labels and Identifiers",
      "SDS Usage and Requirements"
    ]
  }
]